Basic Data Containers in R – ENVS 543: Data Literacy (2024)
…
summary( beetles )

   Stratum            Longitude         Latitude    
 Length:39          Min.   :-114.3   Min.   :23.08  
 Class :character   1st Qu.:-112.9   1st Qu.:24.52  
 Mode  :character   Median :-111.5   Median :26.21  
                    Mean   :-111.7   Mean   :26.14  
                    3rd Qu.:-110.4   3rd Qu.:27.47  
                    Max.   :-109.1   Max.   :29.33  

which looks like:

beetles

# A tibble: 39 × 3
   Stratum Longitude Latitude
   <chr>       <dbl>    <dbl>
 1 88          -114.     29.3
 2 9           -114.     29.0
 3 84          -114.     29.0
 4 175         -113.     28.7
 5 177         -114.     28.7
 6 173         -113.     28.4
 7 171         -113.     28.2
 8 89          -113.     28.0
 9 159         -113.     27.5
10 SFr         -113.     27.4
# ℹ 29 more rows
…
