Text Based Data – ENVS 543: Data Literacy (2024)
…
We need to have the data in the format of

Word | Count

so let’s use our dplyr skills.

data.frame( words, count = 1 ) |> 
  mutate( word = factor( words ) ) |> 
  group_by( word ) |>
  summarize( freq = sum( count )) |> 
  arrange( -freq ) -> tdm 

tdm 

# A tibble: 62 × 2
   word           freq
   <fct>         <dbl>
 1 Environmental    13
 2 Studies           8
 3 and               5
 4 to                5
 5 in                4
 6 Introduction      4
 7 Management        3
 8 Outdoor           3
 9 Topics            3
10 Data              2
# ℹ 52 more rows
…
